%YAML 1.1
%TAG !u! tag:unity3d.com,2011:
--- !u!29 &1
OcclusionCullingSettings:
  m_ObjectHideFlags: 0
  serializedVersion: 2
  m_OcclusionBakeSettings:
    smallestOccluder: 5
    smallestHole: 0.25
    backfaceThreshold: 100
  m_SceneGUID: 00000000000000000000000000000000
  m_OcclusionCullingData: {fileID: 0}
--- !u!104 &2
RenderSettings:
  m_ObjectHideFlags: 0
  serializedVersion: 9
  m_Fog: 0
  m_FogColor: {r: 0.5, g: 0.5, b: 0.5, a: 1}
  m_FogMode: 3
  m_FogDensity: 0.01
  m_LinearFogStart: 0
  m_LinearFogEnd: 300
  m_AmbientSkyColor: {r: 0.38235295, g: 0.35520822, b: 0.24178201, a: 1}
  m_AmbientEquatorColor: {r: 0.38235295, g: 0.35520822, b: 0.24178201, a: 1}
  m_AmbientGroundColor: {r: 0.38235295, g: 0.35520822, b: 0.24178201, a: 1}
  m_AmbientIntensity: 1
  m_AmbientMode: 3
  m_SubtractiveShadowColor: {r: 0.42, g: 0.478, b: 0.627, a: 1}
  m_SkyboxMaterial: {fileID: 0}
  m_HaloStrength: 0.5
  m_FlareStrength: 1
  m_FlareFadeSpeed: 3
  m_HaloTexture: {fileID: 0}
  m_SpotCookie: {fileID: 10001, guid: 0000000000000000e000000000000000, type: 0}
  m_DefaultReflectionMode: 0
  m_DefaultReflectionResolution: 128
  m_ReflectionBounces: 1
  m_ReflectionIntensity: 1
  m_CustomReflection: {fileID: 0}
  m_Sun: {fileID: 0}
  m_IndirectSpecularColor: {r: 0, g: 0, b: 0, a: 1}
  m_UseRadianceAmbientProbe: 0
--- !u!157 &4
LightmapSettings:
  m_ObjectHideFlags: 0
  serializedVersion: 11
  m_GIWorkflowMode: 1
  m_GISettings:
    serializedVersion: 2
    m_BounceScale: 1
    m_IndirectOutputScale: 1
    m_AlbedoBoost: 1
    m_EnvironmentLightingMode: 0
    m_EnableBakedLightmaps: 1
    m_EnableRealtimeLightmaps: 0
  m_LightmapEditorSettings:
    serializedVersion: 12
    m_Resolution: 1
    m_BakeResolution: 50
    m_AtlasSize: 1024
    m_AO: 1
    m_AOMaxDistance: 1
    m_CompAOExponent: 1
    m_CompAOExponentDirect: 0
    m_ExtractAmbientOcclusion: 0
    m_Padding: 2
    m_LightmapParameters: {fileID: 0}
    m_LightmapsBakeMode: 1
    m_TextureCompression: 0
    m_FinalGather: 0
    m_FinalGatherFiltering: 1
    m_FinalGatherRayCount: 256
    m_ReflectionCompression: 2
    m_MixedBakeMode: 1
    m_BakeBackend: 0
    m_PVRSampling: 1
    m_PVRDirectSampleCount: 32
    m_PVRSampleCount: 512
    m_PVRBounces: 2
    m_PVREnvironmentSampleCount: 512
    m_PVREnvironmentReferencePointCount: 2048
    m_PVRFilteringMode: 0
    m_PVRDenoiserTypeDirect: 0
    m_PVRDenoiserTypeIndirect: 0
    m_PVRDenoiserTypeAO: 0
    m_PVRFilterTypeDirect: 0
    m_PVRFilterTypeIndirect: 0
    m_PVRFilterTypeAO: 0
    m_PVREnvironmentMIS: 0
    m_PVRCulling: 1
    m_PVRFilteringGaussRadiusDirect: 1
    m_PVRFilteringGaussRadiusIndirect: 5
    m_PVRFilteringGaussRadiusAO: 2
    m_PVRFilteringAtrousPositionSigmaDirect: 0.5
    m_PVRFilteringAtrousPositionSigmaIndirect: 2
    m_PVRFilteringAtrousPositionSigmaAO: 1
    m_ShowResolutionOverlay: 1
    m_ExportTrainingData: 0
  m_LightingDataAsset: {fileID: 0}
  m_UseShadowmask: 0
--- !u!196 &5
NavMeshSettings:
  serializedVersion: 2
  m_ObjectHideFlags: 0
  m_BuildSettings:
    serializedVersion: 2
    agentTypeID: 0
    agentRadius: 0.5
    agentHeight: 2
    agentSlope: 45
    agentClimb: 0.4
    ledgeDropHeight: 0
    maxJumpAcrossDistance: 0
    minRegionArea: 2
    manualCellSize: 0
    cellSize: 0.16666666
    manualTileSize: 0
    tileSize: 256
    accuratePlacement: 0
    debug:
      m_Flags: 0
  m_NavMeshData: {fileID: 0}
--- !u!1 &79382777
GameObject:
  m_ObjectHideFlags: 0
  m_CorrespondingSourceObject: {fileID: 0}
  m_PrefabInstance: {fileID: 0}
  m_PrefabAsset: {fileID: 0}
  serializedVersion: 6
  m_Component:
  - component: {fileID: 79382778}
  - component: {fileID: 79382782}
  - component: {fileID: 79382781}
  - component: {fileID: 79382780}
  - component: {fileID: 79382779}
  m_Layer: 0
  m_Name: Main Camera
  m_TagString: MainCamera
  m_Icon: {fileID: 0}
  m_NavMeshLayer: 0
  m_StaticEditorFlags: 0
  m_IsActive: 1
--- !u!4 &79382778
Transform:
  m_ObjectHideFlags: 0
  m_CorrespondingSourceObject: {fileID: 0}
  m_PrefabInstance: {fileID: 0}
  m_PrefabAsset: {fileID: 0}
  m_GameObject: {fileID: 79382777}
  m_LocalRotation: {x: -0.019953523, y: 0.98003334, z: -0.14241873, w: -0.1373083}
  m_LocalPosition: {x: 4.4800396, y: 1.7245233, z: 4.8068624}
  m_LocalScale: {x: 1, y: 1, z: 1}
  m_Children: []
  m_Father: {fileID: 1252696208}
  m_RootOrder: 2
  m_LocalEulerAnglesHint: {x: 0, y: 0, z: 0}
--- !u!81 &79382779
AudioListener:
  m_ObjectHideFlags: 0
  m_CorrespondingSourceObject: {fileID: 0}
  m_PrefabInstance: {fileID: 0}
  m_PrefabAsset: {fileID: 0}
  m_GameObject: {fileID: 79382777}
  m_Enabled: 1
--- !u!124 &79382780
Behaviour:
  m_ObjectHideFlags: 0
  m_CorrespondingSourceObject: {fileID: 0}
  m_PrefabInstance: {fileID: 0}
  m_PrefabAsset: {fileID: 0}
  m_GameObject: {fileID: 79382777}
  m_Enabled: 1
--- !u!92 &79382781
Behaviour:
  m_ObjectHideFlags: 0
  m_CorrespondingSourceObject: {fileID: 0}
  m_PrefabInstance: {fileID: 0}
  m_PrefabAsset: {fileID: 0}
  m_GameObject: {fileID: 79382777}
  m_Enabled: 1
--- !u!20 &79382782
Camera:
  m_ObjectHideFlags: 0
  m_CorrespondingSourceObject: {fileID: 0}
  m_PrefabInstance: {fileID: 0}
  m_PrefabAsset: {fileID: 0}
  m_GameObject: {fileID: 79382777}
  m_Enabled: 1
  serializedVersion: 2
  m_ClearFlags: 1
  m_BackGroundColor: {r: 0.19215687, g: 0.3019608, b: 0.4745098, a: 0.019607844}
  m_projectionMatrixMode: 1
  m_GateFitMode: 2
  m_FOVAxisMode: 0
  m_SensorSize: {x: 36, y: 24}
  m_LensShift: {x: 0, y: 0}
  m_FocalLength: 50
  m_NormalizedViewPortRect:
    serializedVersion: 2
    x: 0
    y: 0
    width: 1
    height: 1
  near clip plane: 0.3
  far clip plane: 1000
  field of view: 60
  orthographic: 0
  orthographic size: 5
  m_Depth: -1
  m_CullingMask:
    serializedVersion: 2
    m_Bits: 4294967295
  m_RenderingPath: -1
  m_TargetTexture: {fileID: 0}
  m_TargetDisplay: 0
  m_TargetEye: 3
  m_HDR: 0
  m_AllowMSAA: 1
  m_AllowDynamicResolution: 0
  m_ForceIntoRT: 0
  m_OcclusionCulling: 1
  m_StereoConvergence: 10
  m_StereoSeparation: 0.022
--- !u!1 &95416595
GameObject:
  m_ObjectHideFlags: 0
  m_CorrespondingSourceObject: {fileID: 0}
  m_PrefabInstance: {fileID: 0}
  m_PrefabAsset: {fileID: 0}
  serializedVersion: 6
  m_Component:
  - component: {fileID: 95416596}
  - component: {fileID: 95416597}
  m_Layer: 0
  m_Name: Directional light
  m_TagString: Untagged
  m_Icon: {fileID: 0}
  m_NavMeshLayer: 0
  m_StaticEditorFlags: 0
  m_IsActive: 1
--- !u!4 &95416596
Transform:
  m_ObjectHideFlags: 0
  m_CorrespondingSourceObject: {fileID: 0}
  m_PrefabInstance: {fileID: 0}
  m_PrefabAsset: {fileID: 0}
  m_GameObject: {fileID: 95416595}
  m_LocalRotation: {x: 0.14152491, y: -0.8087293, z: 0.5281751, w: 0.21669964}
  m_LocalPosition: {x: 3.552904, y: 2.057384, z: 2.6008604}
  m_LocalScale: {x: 1, y: 1, z: 1}
  m_Children: []
  m_Father: {fileID: 1252696208}
  m_RootOrder: 0
  m_LocalEulerAnglesHint: {x: 0, y: 0, z: 0}
--- !u!108 &95416597
Light:
  m_ObjectHideFlags: 0
  m_CorrespondingSourceObject: {fileID: 0}
  m_PrefabInstance: {fileID: 0}
  m_PrefabAsset: {fileID: 0}
  m_GameObject: {fileID: 95416595}
  m_Enabled: 1
  serializedVersion: 9
  m_Type: 1
  m_Color: {r: 1, g: 1, b: 1, a: 1}
  m_Intensity: 1
  m_Range: 10
  m_SpotAngle: 30
  m_InnerSpotAngle: 21.80208
  m_CookieSize: 10
  m_Shadows:
    m_Type: 2
    m_Resolution: 3
    m_CustomResolution: -1
    m_Strength: 1
    m_Bias: 0.05
    m_NormalBias: 0.4
    m_NearPlane: 0.2
    m_CullingMatrixOverride:
      e00: 1
      e01: 0
      e02: 0
      e03: 0
      e10: 0
      e11: 1
      e12: 0
      e13: 0
      e20: 0
      e21: 0
      e22: 1
      e23: 0
      e30: 0
      e31: 0
      e32: 0
      e33: 1
    m_UseCullingMatrixOverride: 0
  m_Cookie: {fileID: 0}
  m_DrawHalo: 0
  m_Flare: {fileID: 0}
  m_RenderMode: 0
  m_CullingMask:
    serializedVersion: 2
    m_Bits: 4294967295
  m_RenderingLayerMask: 1
  m_Lightmapping: 1
  m_LightShadowCasterMode: 0
  m_AreaSize: {x: 1, y: 1}
  m_BounceIntensity: 1
  m_ColorTemperature: 6570
  m_UseColorTemperature: 0
  m_BoundingSphereOverride: {x: 0, y: 0, z: 0, w: 0}
  m_UseBoundingSphereOverride: 0
  m_ShadowRadius: 0
  m_ShadowAngle: 0
--- !u!1001 &583041713
PrefabInstance:
  m_ObjectHideFlags: 0
  serializedVersion: 2
  m_Modification:
    m_TransformParent: {fileID: 1252696208}
    m_Modifications:
    - target: {fileID: 400000, guid: 2e79ad53e5a2df241b87a42fcdd21ccd, type: 3}
      propertyPath: m_LocalPosition.x
      value: -1.84000003
      objectReference: {fileID: 0}
    - target: {fileID: 400000, guid: 2e79ad53e5a2df241b87a42fcdd21ccd, type: 3}
      propertyPath: m_LocalPosition.y
      value: 0
      objectReference: {fileID: 0}
    - target: {fileID: 400000, guid: 2e79ad53e5a2df241b87a42fcdd21ccd, type: 3}
      propertyPath: m_LocalPosition.z
      value: .367342472
      objectReference: {fileID: 0}
    - target: {fileID: 400000, guid: 2e79ad53e5a2df241b87a42fcdd21ccd, type: 3}
      propertyPath: m_LocalRotation.x
      value: 1.54543116e-08
      objectReference: {fileID: 0}
    - target: {fileID: 400000, guid: 2e79ad53e5a2df241b87a42fcdd21ccd, type: 3}
      propertyPath: m_LocalRotation.y
      value: -.707106829
      objectReference: {fileID: 0}
    - target: {fileID: 400000, guid: 2e79ad53e5a2df241b87a42fcdd21ccd, type: 3}
      propertyPath: m_LocalRotation.z
      value: 1.54543116e-08
      objectReference: {fileID: 0}
    - target: {fileID: 400000, guid: 2e79ad53e5a2df241b87a42fcdd21ccd, type: 3}
      propertyPath: m_LocalRotation.w
      value: .707106829
      objectReference: {fileID: 0}
    - target: {fileID: 400000, guid: 2e79ad53e5a2df241b87a42fcdd21ccd, type: 3}
      propertyPath: m_LocalScale.z
      value: 2.16136312
      objectReference: {fileID: 0}
    - target: {fileID: 2300000, guid: 2e79ad53e5a2df241b87a42fcdd21ccd, type: 3}
      propertyPath: m_Materials.Array.data[0]
      value: 
      objectReference: {fileID: 2100000, guid: 5fca0bf1fc924724794d78fb0247c599, type: 2}
    m_RemovedComponents:
    - {fileID: 9500000, guid: 2e79ad53e5a2df241b87a42fcdd21ccd, type: 3}
  m_SourcePrefab: {fileID: 100100000, guid: 2e79ad53e5a2df241b87a42fcdd21ccd, type: 3}
--- !u!1001 &792851773
PrefabInstance:
  m_ObjectHideFlags: 0
  serializedVersion: 2
  m_Modification:
    m_TransformParent: {fileID: 0}
    m_Modifications:
    - target: {fileID: 400000, guid: a4486f08aacc4ea47a0b8704a5df90e0, type: 3}
      propertyPath: m_LocalPosition.x
      value: 3.82538247
      objectReference: {fileID: 0}
    - target: {fileID: 400000, guid: a4486f08aacc4ea47a0b8704a5df90e0, type: 3}
      propertyPath: m_LocalPosition.y
      value: 2.98023224e-08
      objectReference: {fileID: 0}
    - target: {fileID: 400000, guid: a4486f08aacc4ea47a0b8704a5df90e0, type: 3}
      propertyPath: m_LocalPosition.z
      value: .349538058
      objectReference: {fileID: 0}
    - target: {fileID: 400000, guid: a4486f08aacc4ea47a0b8704a5df90e0, type: 3}
      propertyPath: m_LocalRotation.x
      value: 2.18556941e-08
      objectReference: {fileID: 0}
    - target: {fileID: 400000, guid: a4486f08aacc4ea47a0b8704a5df90e0, type: 3}
      propertyPath: m_LocalRotation.y
      value: 0
      objectReference: {fileID: 0}
    - target: {fileID: 400000, guid: a4486f08aacc4ea47a0b8704a5df90e0, type: 3}
      propertyPath: m_LocalRotation.z
      value: -0
      objectReference: {fileID: 0}
    - target: {fileID: 400000, guid: a4486f08aacc4ea47a0b8704a5df90e0, type: 3}
      propertyPath: m_LocalRotation.w
      value: 1
      objectReference: {fileID: 0}
    m_RemovedComponents: []
  m_SourcePrefab: {fileID: 100100000, guid: a4486f08aacc4ea47a0b8704a5df90e0, type: 3}
--- !u!1001 &881480967
PrefabInstance:
  m_ObjectHideFlags: 0
  serializedVersion: 2
  m_Modification:
    m_TransformParent: {fileID: 0}
    m_Modifications:
    - target: {fileID: 400000, guid: abbf673225b3d3244926139c3c7b3c86, type: 3}
      propertyPath: m_LocalPosition.x
      value: 6.39660692
      objectReference: {fileID: 0}
    - target: {fileID: 400000, guid: abbf673225b3d3244926139c3c7b3c86, type: 3}
      propertyPath: m_LocalPosition.y
      value: 2.98135525e-08
      objectReference: {fileID: 0}
    - target: {fileID: 400000, guid: abbf673225b3d3244926139c3c7b3c86, type: 3}
      propertyPath: m_LocalPosition.z
      value: .302777171
      objectReference: {fileID: 0}
    - target: {fileID: 400000, guid: abbf673225b3d3244926139c3c7b3c86, type: 3}
      propertyPath: m_LocalRotation.x
      value: 2.18556941e-08
      objectReference: {fileID: 0}
    - target: {fileID: 400000, guid: abbf673225b3d3244926139c3c7b3c86, type: 3}
      propertyPath: m_LocalRotation.y
      value: 0
      objectReference: {fileID: 0}
    - target: {fileID: 400000, guid: abbf673225b3d3244926139c3c7b3c86, type: 3}
      propertyPath: m_LocalRotation.z
      value: -0
      objectReference: {fileID: 0}
    - target: {fileID: 400000, guid: abbf673225b3d3244926139c3c7b3c86, type: 3}
      propertyPath: m_LocalRotation.w
      value: 1
      objectReference: {fileID: 0}
    m_RemovedComponents: []
  m_SourcePrefab: {fileID: 100100000, guid: abbf673225b3d3244926139c3c7b3c86, type: 3}
--- !u!1001 &994412002
PrefabInstance:
  m_ObjectHideFlags: 0
  serializedVersion: 2
  m_Modification:
    m_TransformParent: {fileID: 0}
    m_Modifications:
    - target: {fileID: 400000, guid: 8ac94c219c9de5944969f0e57710beb2, type: 3}
      propertyPath: m_LocalPosition.x
      value: -1.14759457
      objectReference: {fileID: 0}
    - target: {fileID: 400000, guid: 8ac94c219c9de5944969f0e57710beb2, type: 3}
      propertyPath: m_LocalPosition.y
      value: -5.96046448e-08
      objectReference: {fileID: 0}
    - target: {fileID: 400000, guid: 8ac94c219c9de5944969f0e57710beb2, type: 3}
      propertyPath: m_LocalPosition.z
      value: .237689689
      objectReference: {fileID: 0}
    - target: {fileID: 400000, guid: 8ac94c219c9de5944969f0e57710beb2, type: 3}
      propertyPath: m_LocalRotation.x
      value: 2.18556941e-08
      objectReference: {fileID: 0}
    - target: {fileID: 400000, guid: 8ac94c219c9de5944969f0e57710beb2, type: 3}
      propertyPath: m_LocalRotation.y
      value: 0
      objectReference: {fileID: 0}
    - target: {fileID: 400000, guid: 8ac94c219c9de5944969f0e57710beb2, type: 3}
      propertyPath: m_LocalRotation.z
      value: -0
      objectReference: {fileID: 0}
    - target: {fileID: 400000, guid: 8ac94c219c9de5944969f0e57710beb2, type: 3}
      propertyPath: m_LocalRotation.w
      value: 1
      objectReference: {fileID: 0}
    m_RemovedComponents: []
  m_SourcePrefab: {fileID: 100100000, guid: 8ac94c219c9de5944969f0e57710beb2, type: 3}
--- !u!4 &1045385772 stripped
Transform:
  m_CorrespondingSourceObject: {fileID: 400000, guid: 2e79ad53e5a2df241b87a42fcdd21ccd,
    type: 3}
  m_PrefabInstance: {fileID: 583041713}
  m_PrefabAsset: {fileID: 0}
--- !u!1001 &1233494887
PrefabInstance:
  m_ObjectHideFlags: 0
  serializedVersion: 2
  m_Modification:
    m_TransformParent: {fileID: 0}
    m_Modifications:
    - target: {fileID: 400000, guid: 87a7388e3c2f53b47a0a13a242e4fca5, type: 3}
      propertyPath: m_LocalPosition.x
      value: 5.19946671
      objectReference: {fileID: 0}
    - target: {fileID: 400000, guid: 87a7388e3c2f53b47a0a13a242e4fca5, type: 3}
      propertyPath: m_LocalPosition.y
      value: 5.00298011e-05
      objectReference: {fileID: 0}
    - target: {fileID: 400000, guid: 87a7388e3c2f53b47a0a13a242e4fca5, type: 3}
      propertyPath: m_LocalPosition.z
      value: .162090987
      objectReference: {fileID: 0}
    - target: {fileID: 400000, guid: 87a7388e3c2f53b47a0a13a242e4fca5, type: 3}
      propertyPath: m_LocalRotation.x
      value: 2.18556941e-08
      objectReference: {fileID: 0}
    - target: {fileID: 400000, guid: 87a7388e3c2f53b47a0a13a242e4fca5, type: 3}
      propertyPath: m_LocalRotation.y
      value: 0
      objectReference: {fileID: 0}
    - target: {fileID: 400000, guid: 87a7388e3c2f53b47a0a13a242e4fca5, type: 3}
      propertyPath: m_LocalRotation.z
      value: -0
      objectReference: {fileID: 0}
    - target: {fileID: 400000, guid: 87a7388e3c2f53b47a0a13a242e4fca5, type: 3}
      propertyPath: m_LocalRotation.w
      value: 1
      objectReference: {fileID: 0}
    m_RemovedComponents: []
  m_SourcePrefab: {fileID: 100100000, guid: 87a7388e3c2f53b47a0a13a242e4fca5, type: 3}
--- !u!1 &1252696207
GameObject:
  m_ObjectHideFlags: 0
  m_CorrespondingSourceObject: {fileID: 0}
  m_PrefabInstance: {fileID: 0}
  m_PrefabAsset: {fileID: 0}
  serializedVersion: 6
  m_Component:
  - component: {fileID: 1252696208}
  m_Layer: 0
  m_Name: Presentation
  m_TagString: Untagged
  m_Icon: {fileID: 0}
  m_NavMeshLayer: 0
  m_StaticEditorFlags: 0
  m_IsActive: 1
--- !u!4 &1252696208
Transform:
  m_ObjectHideFlags: 0
  m_CorrespondingSourceObject: {fileID: 0}
  m_PrefabInstance: {fileID: 0}
  m_PrefabAsset: {fileID: 0}
  m_GameObject: {fileID: 1252696207}
  m_LocalRotation: {x: 0, y: 0, z: 0, w: 1}
  m_LocalPosition: {x: 0, y: 0, z: 0}
  m_LocalScale: {x: 1, y: 1, z: 1}
  m_Children:
  - {fileID: 95416596}
  - {fileID: 1045385772}
  - {fileID: 79382778}
  m_Father: {fileID: 0}
  m_RootOrder: 0
  m_LocalEulerAnglesHint: {x: 0, y: 0, z: 0}
--- !u!1001 &1533616186
PrefabInstance:
  m_ObjectHideFlags: 0
  serializedVersion: 2
  m_Modification:
    m_TransformParent: {fileID: 0}
    m_Modifications:
    - target: {fileID: 400000, guid: 0d4a0af2170cbc940802a61080a18fe1, type: 3}
      propertyPath: m_LocalPosition.x
      value: .857351542
      objectReference: {fileID: 0}
    - target: {fileID: 400000, guid: 0d4a0af2170cbc940802a61080a18fe1, type: 3}
      propertyPath: m_LocalPosition.y
      value: 0
      objectReference: {fileID: 0}
    - target: {fileID: 400000, guid: 0d4a0af2170cbc940802a61080a18fe1, type: 3}
      propertyPath: m_LocalPosition.z
      value: .224227428
      objectReference: {fileID: 0}
    - target: {fileID: 400000, guid: 0d4a0af2170cbc940802a61080a18fe1, type: 3}
      propertyPath: m_LocalRotation.x
      value: 0
      objectReference: {fileID: 0}
    - target: {fileID: 400000, guid: 0d4a0af2170cbc940802a61080a18fe1, type: 3}
      propertyPath: m_LocalRotation.y
      value: 0
      objectReference: {fileID: 0}
    - target: {fileID: 400000, guid: 0d4a0af2170cbc940802a61080a18fe1, type: 3}
      propertyPath: m_LocalRotation.z
      value: 0
      objectReference: {fileID: 0}
    - target: {fileID: 400000, guid: 0d4a0af2170cbc940802a61080a18fe1, type: 3}
      propertyPath: m_LocalRotation.w
      value: 1
      objectReference: {fileID: 0}
    m_RemovedComponents: []
  m_SourcePrefab: {fileID: 100100000, guid: 0d4a0af2170cbc940802a61080a18fe1, type: 3}
--- !u!1001 &1593329615
PrefabInstance:
  m_ObjectHideFlags: 0
  serializedVersion: 2
  m_Modification:
    m_TransformParent: {fileID: 0}
    m_Modifications:
    - target: {fileID: 400004, guid: 123f5233381741341bea667fcaafaf14, type: 3}
      propertyPath: m_LocalPosition.x
      value: 2.25807738
      objectReference: {fileID: 0}
    - target: {fileID: 400004, guid: 123f5233381741341bea667fcaafaf14, type: 3}
      propertyPath: m_LocalPosition.y
      value: 0
      objectReference: {fileID: 0}
    - target: {fileID: 400004, guid: 123f5233381741341bea667fcaafaf14, type: 3}
      propertyPath: m_LocalPosition.z
      value: .273389131
      objectReference: {fileID: 0}
    - target: {fileID: 400004, guid: 123f5233381741341bea667fcaafaf14, type: 3}
      propertyPath: m_LocalRotation.x
      value: 0
      objectReference: {fileID: 0}
    - target: {fileID: 400004, guid: 123f5233381741341bea667fcaafaf14, type: 3}
      propertyPath: m_LocalRotation.y
      value: 0
      objectReference: {fileID: 0}
    - target: {fileID: 400004, guid: 123f5233381741341bea667fcaafaf14, type: 3}
      propertyPath: m_LocalRotation.z
      value: 0
      objectReference: {fileID: 0}
    - target: {fileID: 400004, guid: 123f5233381741341bea667fcaafaf14, type: 3}
      propertyPath: m_LocalRotation.w
      value: 1
      objectReference: {fileID: 0}
    m_RemovedComponents: []
  m_SourcePrefab: {fileID: 100100000, guid: 123f5233381741341bea667fcaafaf14, type: 3}
